{
  "data":
        {
            "content": [
                "{\"applicationId\":\"754c3e47-1de6-4a9f-9d7c-3a54b3567d54\",\"capable\":false,\"clientStatus\":false,\"createTime\":1516782381495,\"enable\":true,\"everyone\":false,\"hasWidget\":false,\"phoneStatus\":false,\"primaryKey\":\"e2c04461-9ff0-4533-ac5b-76dcfeccb5bd\",\"relationServices\":[],\"relationUsers\":[],\"selected\":false,\"serviceCode\":\"3eaa1dff-3efb-4905-b9ce-fac7846b5f8d\",\"serviceIcon\":\"\",\"serviceId\":\"e2c04461-9ff0-4533-ac5b-76dcfeccb5bd\",\"serviceName\":\"app测试1\",\"tenantId\":\"gtzceot7\",\"ts\":1516782381495,\"url\":\"baidu\",\"webStatus\":true}",
                "{\"applicationId\":\"bd8ecb95-311a-491d-9c02-22c7e9aa5e5a\",\"capable\":false,\"clientStatus\":false,\"createTime\":1516676499741,\"enable\":true,\"everyone\":false,\"hasWidget\":false,\"phoneStatus\":false,\"primaryKey\":\"a628a78a-a7e8-43fd-acce-890629ec592b\",\"relationServices\":[],\"relationUsers\":[],\"selected\":false,\"serviceCode\":\"4bc8cdf2-7207-4dfc-a4bc-c1017dd0e79e\",\"serviceIcon\":\"\",\"serviceId\":\"a628a78a-a7e8-43fd-acce-890629ec592b\",\"serviceName\":\"app测试\",\"tenantId\":\"gtzceot7\",\"ts\":1516676499741,\"url\":\"web\",\"webStatus\":true}",
                "{\"applicationId\":\"bd8ecb95-311a-491d-9c02-22c7e9aa5e5a\",\"capable\":false,\"clientStatus\":false,\"createTime\":1516676500000,\"enable\":true,\"everyone\":false,\"hasWidget\":false,\"modifiedTime\":1516717294046,\"phoneStatus\":false,\"primaryKey\":\"a628a78a-a7e8-43fd-acce-890629ec592b\",\"relationServices\":[],\"relationUsers\":[],\"selected\":false,\"serviceCode\":\"4bc8cdf2-7207-4dfc-a4bc-c1017dd0e79e\",\"serviceIcon\":\"\",\"serviceId\":\"a628a78a-a7e8-43fd-acce-890629ec592b\",\"serviceName\":\"app测试\",\"tenantId\":\"gtzceot7\",\"ts\":1516676500000,\"url\":\"web\",\"webStatus\":true}",
                "{\"applicationId\":\"754c3e47-1de6-4a9f-9d7c-3a54b3567d54\",\"capable\":false,\"clientStatus\":false,\"createTime\":1516782381000,\"enable\":true,\"everyone\":false,\"hasWidget\":false,\"modifiedTime\":1516782523332,\"phoneStatus\":false,\"primaryKey\":\"e2c04461-9ff0-4533-ac5b-76dcfeccb5bd\",\"relationServices\":[],\"relationUsers\":[],\"selected\":false,\"serviceCode\":\"3eaa1dff-3efb-4905-b9ce-fac7846b5f8d\",\"serviceIcon\":\"\",\"serviceId\":\"e2c04461-9ff0-4533-ac5b-76dcfeccb5bd\",\"serviceName\":\"app测试1\",\"tenantId\":\"gtzceot7\",\"ts\":1516782381000,\"url\":\"baidu\",\"webStatus\":true}",
                "{\"applicationId\":\"bd8ecb95-311a-491d-9c02-22c7e9aa5e5a\",\"capable\":false,\"clientStatus\":false,\"createTime\":1516676499741,\"enable\":true,\"everyone\":false,\"hasWidget\":false,\"phoneStatus\":false,\"primaryKey\":\"a628a78a-a7e8-43fd-acce-890629ec592b\",\"relationServices\":[],\"relationUsers\":[],\"selected\":false,\"serviceCode\":\"4bc8cdf2-7207-4dfc-a4bc-c1017dd0e79e\",\"serviceIcon\":\"\",\"serviceId\":\"a628a78a-a7e8-43fd-acce-890629ec592b\",\"serviceName\":\"app测试\",\"tenantId\":\"gtzceot7\",\"ts\":1516676499741,\"url\":\"web\",\"webStatus\":true}",
                "{\"applicationId\":\"bd8ecb95-311a-491d-9c02-22c7e9aa5e5a\",\"capable\":false,\"clientStatus\":false,\"createTime\":1516676500000,\"enable\":true,\"everyone\":false,\"hasWidget\":false,\"modifiedTime\":1516717294046,\"phoneStatus\":false,\"primaryKey\":\"a628a78a-a7e8-43fd-acce-890629ec592b\",\"relationServices\":[],\"relationUsers\":[],\"selected\":false,\"serviceCode\":\"4bc8cdf2-7207-4dfc-a4bc-c1017dd0e79e\",\"serviceIcon\":\"\",\"serviceId\":\"a628a78a-a7e8-43fd-acce-890629ec592b\",\"serviceName\":\"app测试\",\"tenantId\":\"gtzceot7\",\"ts\":1516676500000,\"url\":\"web\",\"webStatus\":true}",
                "{\"applicationId\":\"754c3e47-1de6-4a9f-9d7c-3a54b3567d54\",\"capable\":false,\"clientStatus\":false,\"createTime\":1516782381000,\"enable\":true,\"everyone\":false,\"hasWidget\":false,\"modifiedTime\":1516782523332,\"phoneStatus\":false,\"primaryKey\":\"e2c04461-9ff0-4533-ac5b-76dcfeccb5bd\",\"relationServices\":[],\"relationUsers\":[],\"selected\":false,\"serviceCode\":\"3eaa1dff-3efb-4905-b9ce-fac7846b5f8d\",\"serviceIcon\":\"\",\"serviceId\":\"e2c04461-9ff0-4533-ac5b-76dcfeccb5bd\",\"serviceName\":\"app测试1\",\"tenantId\":\"gtzceot7\",\"ts\":1516782381000,\"url\":\"baidu\",\"webStatus\":true}",
                "{\"applicationId\":\"754c3e47-1de6-4a9f-9d7c-3a54b3567d54\",\"capable\":false,\"clientStatus\":false,\"createTime\":1516782381000,\"enable\":true,\"everyone\":false,\"hasWidget\":false,\"modifiedTime\":1516782826760,\"phoneStatus\":false,\"primaryKey\":\"e2c04461-9ff0-4533-ac5b-76dcfeccb5bd\",\"relationServices\":[],\"relationUsers\":[],\"selected\":false,\"serviceCode\":\"3eaa1dff-3efb-4905-b9ce-fac7846b5f8d\",\"serviceIcon\":\"\",\"serviceId\":\"e2c04461-9ff0-4533-ac5b-76dcfeccb5bd\",\"serviceName\":\"app测试1\",\"tenantId\":\"gtzceot7\",\"ts\":1516782381000,\"url\":\"baidu\",\"webStatus\":true}",
                "{\"applicationId\":\"754c3e47-1de6-4a9f-9d7c-3a54b3567d54\",\"capable\":false,\"clientStatus\":false,\"createTime\":1516782381495,\"enable\":true,\"everyone\":false,\"hasWidget\":false,\"phoneStatus\":false,\"primaryKey\":\"e2c04461-9ff0-4533-ac5b-76dcfeccb5bd\",\"relationServices\":[],\"relationUsers\":[],\"selected\":false,\"serviceCode\":\"3eaa1dff-3efb-4905-b9ce-fac7846b5f8d\",\"serviceIcon\":\"\",\"serviceId\":\"e2c04461-9ff0-4533-ac5b-76dcfeccb5bd\",\"serviceName\":\"app测试1\",\"tenantId\":\"gtzceot7\",\"ts\":1516782381495,\"url\":\"baidu\",\"webStatus\":true}",
                "{\"applicationId\":\"754c3e47-1de6-4a9f-9d7c-3a54b3567d54\",\"capable\":false,\"clientStatus\":false,\"createTime\":1516782381000,\"enable\":true,\"everyone\":false,\"hasWidget\":false,\"modifiedTime\":1516843917646,\"phoneStatus\":false,\"primaryKey\":\"e2c04461-9ff0-4533-ac5b-76dcfeccb5bd\",\"relationServices\":[],\"relationUsers\":[],\"selected\":false,\"serviceCode\":\"3eaa1dff-3efb-4905-b9ce-fac7846b5f8d\",\"serviceIcon\":\"\",\"serviceId\":\"e2c04461-9ff0-4533-ac5b-76dcfeccb5bd\",\"serviceName\":\"app测试1\",\"tenantId\":\"gtzceot7\",\"ts\":1516782381000,\"url\":\"baidu\",\"webStatus\":true}",
                "{\"applicationId\":\"7267478e-ae4c-4f2b-8d09-1d697bdd12fd\",\"capable\":false,\"clientStatus\":false,\"createTime\":1516780070942,\"enable\":true,\"everyone\":false,\"hasWidget\":false,\"phoneStatus\":false,\"primaryKey\":\"d46ace37-1737-4c61-8953-563dd2d3bcd1\",\"relationServices\":[],\"relationUsers\":[],\"selected\":false,\"serviceCode\":\"60096840-4556-4ae8-9f56-e38eded80e8f\",\"serviceIcon\":\"\",\"serviceId\":\"d46ace37-1737-4c61-8953-563dd2d3bcd1\",\"serviceName\":\"app测试\",\"tenantId\":\"gtzceot7\",\"ts\":1516780070942,\"url\":\"baidu.com\",\"webStatus\":true}",
                "{\"applicationId\":\"754c3e47-1de6-4a9f-9d7c-3a54b3567d54\",\"capable\":false,\"clientStatus\":false,\"createTime\":1516782381000,\"enable\":true,\"everyone\":false,\"hasWidget\":false,\"modifiedTime\":1516843917646,\"phoneStatus\":false,\"primaryKey\":\"e2c04461-9ff0-4533-ac5b-76dcfeccb5bd\",\"relationServices\":[],\"relationUsers\":[],\"selected\":false,\"serviceCode\":\"3eaa1dff-3efb-4905-b9ce-fac7846b5f8d\",\"serviceIcon\":\"\",\"serviceId\":\"e2c04461-9ff0-4533-ac5b-76dcfeccb5bd\",\"serviceName\":\"app测试1\",\"tenantId\":\"gtzceot7\",\"ts\":1516782381000,\"url\":\"baidu\",\"webStatus\":true}",
                "{\"applicationId\":\"7267478e-ae4c-4f2b-8d09-1d697bdd12fd\",\"capable\":false,\"clientStatus\":false,\"createTime\":1516780070942,\"enable\":true,\"everyone\":false,\"hasWidget\":false,\"phoneStatus\":false,\"primaryKey\":\"d46ace37-1737-4c61-8953-563dd2d3bcd1\",\"relationServices\":[],\"relationUsers\":[],\"selected\":false,\"serviceCode\":\"60096840-4556-4ae8-9f56-e38eded80e8f\",\"serviceIcon\":\"\",\"serviceId\":\"d46ace37-1737-4c61-8953-563dd2d3bcd1\",\"serviceName\":\"app测试\",\"tenantId\":\"gtzceot7\",\"ts\":1516780070942,\"url\":\"baidu.com\",\"webStatus\":true}",
                "{\"applicationId\":\"7267478e-ae4c-4f2b-8d09-1d697bdd12fd\",\"capable\":false,\"clientStatus\":false,\"createTime\":1516780071000,\"enable\":true,\"everyone\":false,\"hasWidget\":false,\"modifiedTime\":1516780348741,\"phoneStatus\":false,\"primaryKey\":\"d46ace37-1737-4c61-8953-563dd2d3bcd1\",\"relationServices\":[],\"relationUsers\":[],\"selected\":false,\"serviceCode\":\"60096840-4556-4ae8-9f56-e38eded80e8f\",\"serviceIcon\":\"\",\"serviceId\":\"d46ace37-1737-4c61-8953-563dd2d3bcd1\",\"serviceName\":\"app测试\",\"tenantId\":\"gtzceot7\",\"ts\":1516780071000,\"url\":\"baidu.com\",\"webStatus\":true}",
                "{\"applicationId\":\"754c3e47-1de6-4a9f-9d7c-3a54b3567d54\",\"capable\":false,\"clientStatus\":false,\"createTime\":1516782381000,\"enable\":true,\"everyone\":false,\"hasWidget\":false,\"modifiedTime\":1516782826760,\"phoneStatus\":false,\"primaryKey\":\"e2c04461-9ff0-4533-ac5b-76dcfeccb5bd\",\"relationServices\":[],\"relationUsers\":[],\"selected\":false,\"serviceCode\":\"3eaa1dff-3efb-4905-b9ce-fac7846b5f8d\",\"serviceIcon\":\"\",\"serviceId\":\"e2c04461-9ff0-4533-ac5b-76dcfeccb5bd\",\"serviceName\":\"app测试1\",\"tenantId\":\"gtzceot7\",\"ts\":1516782381000,\"url\":\"baidu\",\"webStatus\":true}"
            ],
            "currentPage": 1,
            "totalPages": 2,
            "renderUrl": "应用/服务模板",
            "totalElements": 100,
            "type": "service",
            "typeName": "服务"
        },
  "msg": "",
  "status": 1
}